<mxfile host="65bd71144e">
    <diagram id="xB3aLclOL1RMFg2nA4L_" name="Page-1">
        <mxGraphModel dx="450" dy="523" grid="1" gridSize="10" guides="1" tooltips="1" connect="1" arrows="1" fold="1" page="1" pageScale="1" pageWidth="850" pageHeight="1100" math="0" shadow="0">
            <root>
                <mxCell id="0"/>
                <mxCell id="1" parent="0"/>
                <mxCell id="Bqoigc9CEwBJG4SgBKGs-5" style="edgeStyle=orthogonalEdgeStyle;orthogonalLoop=1;jettySize=auto;html=1;exitX=0;exitY=0.5;exitDx=0;exitDy=0;exitPerimeter=0;entryX=0.5;entryY=0;entryDx=0;entryDy=0;entryPerimeter=0;curved=1;" parent="1" source="Bqoigc9CEwBJG4SgBKGs-1" target="Bqoigc9CEwBJG4SgBKGs-4" edge="1">
                    <mxGeometry relative="1" as="geometry"/>
                </mxCell>
                <mxCell id="Bqoigc9CEwBJG4SgBKGs-8" value="192.168.10.0/24" style="edgeLabel;html=1;align=center;verticalAlign=middle;resizable=0;points=[];" parent="Bqoigc9CEwBJG4SgBKGs-5" vertex="1" connectable="0">
                    <mxGeometry x="0.3913" y="15" relative="1" as="geometry">
                        <mxPoint as="offset"/>
                    </mxGeometry>
                </mxCell>
                <mxCell id="Bqoigc9CEwBJG4SgBKGs-11" value=".1" style="edgeLabel;html=1;align=center;verticalAlign=middle;resizable=0;points=[];" parent="Bqoigc9CEwBJG4SgBKGs-5" vertex="1" connectable="0">
                    <mxGeometry x="-0.8783" relative="1" as="geometry">
                        <mxPoint as="offset"/>
                    </mxGeometry>
                </mxCell>
                <mxCell id="Bqoigc9CEwBJG4SgBKGs-14" value=".2" style="edgeLabel;html=1;align=center;verticalAlign=middle;resizable=0;points=[];" parent="Bqoigc9CEwBJG4SgBKGs-5" vertex="1" connectable="0">
                    <mxGeometry x="0.8406" y="1" relative="1" as="geometry">
                        <mxPoint as="offset"/>
                    </mxGeometry>
                </mxCell>
                <mxCell id="Bqoigc9CEwBJG4SgBKGs-6" style="edgeStyle=orthogonalEdgeStyle;orthogonalLoop=1;jettySize=auto;html=1;exitX=0.5;exitY=1;exitDx=0;exitDy=0;exitPerimeter=0;entryX=0.5;entryY=0;entryDx=0;entryDy=0;entryPerimeter=0;curved=1;" parent="1" source="Bqoigc9CEwBJG4SgBKGs-1" target="Bqoigc9CEwBJG4SgBKGs-3" edge="1">
                    <mxGeometry relative="1" as="geometry"/>
                </mxCell>
                <mxCell id="Bqoigc9CEwBJG4SgBKGs-9" value="192.168.11.0/24" style="edgeLabel;html=1;align=center;verticalAlign=middle;resizable=0;points=[];" parent="Bqoigc9CEwBJG4SgBKGs-6" vertex="1" connectable="0">
                    <mxGeometry x="-0.2667" relative="1" as="geometry">
                        <mxPoint y="7" as="offset"/>
                    </mxGeometry>
                </mxCell>
                <mxCell id="Bqoigc9CEwBJG4SgBKGs-12" value=".1" style="edgeLabel;html=1;align=center;verticalAlign=middle;resizable=0;points=[];" parent="Bqoigc9CEwBJG4SgBKGs-6" vertex="1" connectable="0">
                    <mxGeometry x="-0.7333" y="-1" relative="1" as="geometry">
                        <mxPoint as="offset"/>
                    </mxGeometry>
                </mxCell>
                <mxCell id="Bqoigc9CEwBJG4SgBKGs-15" value=".2" style="edgeLabel;html=1;align=center;verticalAlign=middle;resizable=0;points=[];" parent="Bqoigc9CEwBJG4SgBKGs-6" vertex="1" connectable="0">
                    <mxGeometry x="0.637" relative="1" as="geometry">
                        <mxPoint y="-4" as="offset"/>
                    </mxGeometry>
                </mxCell>
                <mxCell id="Bqoigc9CEwBJG4SgBKGs-7" style="edgeStyle=orthogonalEdgeStyle;orthogonalLoop=1;jettySize=auto;html=1;exitX=1;exitY=0.5;exitDx=0;exitDy=0;exitPerimeter=0;entryX=0.5;entryY=0;entryDx=0;entryDy=0;entryPerimeter=0;curved=1;" parent="1" source="Bqoigc9CEwBJG4SgBKGs-1" target="Bqoigc9CEwBJG4SgBKGs-2" edge="1">
                    <mxGeometry relative="1" as="geometry"/>
                </mxCell>
                <mxCell id="Bqoigc9CEwBJG4SgBKGs-10" value="192.168.12.0/24" style="edgeLabel;html=1;align=center;verticalAlign=middle;resizable=0;points=[];" parent="Bqoigc9CEwBJG4SgBKGs-7" vertex="1" connectable="0">
                    <mxGeometry x="0.3091" y="-19" relative="1" as="geometry">
                        <mxPoint y="6" as="offset"/>
                    </mxGeometry>
                </mxCell>
                <mxCell id="Bqoigc9CEwBJG4SgBKGs-13" value=".1" style="edgeLabel;html=1;align=center;verticalAlign=middle;resizable=0;points=[];" parent="Bqoigc9CEwBJG4SgBKGs-7" vertex="1" connectable="0">
                    <mxGeometry x="-0.8545" relative="1" as="geometry">
                        <mxPoint as="offset"/>
                    </mxGeometry>
                </mxCell>
                <mxCell id="Bqoigc9CEwBJG4SgBKGs-16" value=".2" style="edgeLabel;html=1;align=center;verticalAlign=middle;resizable=0;points=[];" parent="Bqoigc9CEwBJG4SgBKGs-7" vertex="1" connectable="0">
                    <mxGeometry x="0.8667" relative="1" as="geometry">
                        <mxPoint y="-5" as="offset"/>
                    </mxGeometry>
                </mxCell>
                <mxCell id="Bqoigc9CEwBJG4SgBKGs-1" value="" style="sketch=0;points=[[0.5,0,0],[1,0.5,0],[0.5,1,0],[0,0.5,0],[0.145,0.145,0],[0.8555,0.145,0],[0.855,0.8555,0],[0.145,0.855,0]];verticalLabelPosition=bottom;html=1;verticalAlign=top;aspect=fixed;align=center;pointerEvents=1;shape=mxgraph.cisco19.rect;prIcon=router;fillColor=#FAFAFA;strokeColor=#005073;spacingBottom=0;" parent="1" vertex="1">
                    <mxGeometry x="350" y="220" width="50" height="50" as="geometry"/>
                </mxCell>
                <mxCell id="Bqoigc9CEwBJG4SgBKGs-2" value="kali&lt;br&gt;ip: 192.168.12.2" style="points=[[0.13,0.02,0],[0.5,0,0],[0.87,0.02,0],[0.885,0.4,0],[0.985,0.985,0],[0.5,1,0],[0.015,0.985,0],[0.115,0.4,0]];verticalLabelPosition=bottom;sketch=0;html=1;verticalAlign=top;aspect=fixed;align=center;pointerEvents=1;shape=mxgraph.cisco19.laptop;fillColor=#005073;strokeColor=none;" parent="1" vertex="1">
                    <mxGeometry x="480" y="370" width="50" height="35" as="geometry"/>
                </mxCell>
                <mxCell id="Bqoigc9CEwBJG4SgBKGs-3" value="VPLE&lt;br&gt;ip: 192.168.11.3" style="points=[[0.13,0.02,0],[0.5,0,0],[0.87,0.02,0],[0.885,0.4,0],[0.985,0.985,0],[0.5,1,0],[0.015,0.985,0],[0.115,0.4,0]];verticalLabelPosition=bottom;sketch=0;html=1;verticalAlign=top;aspect=fixed;align=center;pointerEvents=1;shape=mxgraph.cisco19.laptop;fillColor=#005073;strokeColor=none;" parent="1" vertex="1">
                    <mxGeometry x="350" y="370" width="50" height="35" as="geometry"/>
                </mxCell>
                <mxCell id="Bqoigc9CEwBJG4SgBKGs-4" value="xubuntu1&lt;br&gt;ip: 192.168.10.2" style="points=[[0.13,0.02,0],[0.5,0,0],[0.87,0.02,0],[0.885,0.4,0],[0.985,0.985,0],[0.5,1,0],[0.015,0.985,0],[0.115,0.4,0]];verticalLabelPosition=bottom;sketch=0;html=1;verticalAlign=top;aspect=fixed;align=center;pointerEvents=1;shape=mxgraph.cisco19.laptop;fillColor=#005073;strokeColor=none;" parent="1" vertex="1">
                    <mxGeometry x="210" y="370" width="50" height="35" as="geometry"/>
                </mxCell>
                <mxCell id="Bqoigc9CEwBJG4SgBKGs-17" value="vsrx" style="text;html=1;align=center;verticalAlign=middle;resizable=0;points=[];autosize=1;strokeColor=none;fillColor=none;" parent="1" vertex="1">
                    <mxGeometry x="355" y="200" width="40" height="20" as="geometry"/>
                </mxCell>
                <mxCell id="Bqoigc9CEwBJG4SgBKGs-18" value="ge-0/0/1" style="text;html=1;align=center;verticalAlign=middle;resizable=0;points=[];autosize=1;strokeColor=none;fillColor=none;" parent="1" vertex="1">
                    <mxGeometry x="295" y="220" width="60" height="20" as="geometry"/>
                </mxCell>
                <mxCell id="Bqoigc9CEwBJG4SgBKGs-19" value="ge-0/0/2" style="text;html=1;align=center;verticalAlign=middle;resizable=0;points=[];autosize=1;strokeColor=none;fillColor=none;" parent="1" vertex="1">
                    <mxGeometry x="380" y="270" width="60" height="20" as="geometry"/>
                </mxCell>
                <mxCell id="Bqoigc9CEwBJG4SgBKGs-20" value="ge-0/0/3" style="text;html=1;align=center;verticalAlign=middle;resizable=0;points=[];autosize=1;strokeColor=none;fillColor=none;" parent="1" vertex="1">
                    <mxGeometry x="395" y="220" width="60" height="20" as="geometry"/>
                </mxCell>
            </root>
        </mxGraphModel>
    </diagram>
</mxfile>